<svg version="1.1" xmlns="http://www.w3.org/2000/svg" viewBox="0 0 1024 1024">
<path d="M1023.927 540.18c0-91.807-133.482-161.489-310.537-161.489-30.884 0.121-61.727 2.548-92.316 7.267v-224.469c0-91.807-133.482-161.489-310.537-161.489s-310.537 68.875-310.537 161.489v482.85c0 91.807 133.482 161.489 310.537 161.489 30.892 0.151 61.759-2.008 92.389-6.46v63.143c0 91.807 133.482 161.489 310.537 161.489s310.537-69.279 310.537-161.489v-322.332h-0.073zM647.305 433.193c21.784-2.531 43.672-3.797 65.576-3.795 152.281 0 265.654 58.459 265.654 110.781s-113.373 110.781-265.070 110.781c-21.859 0-42.26-1.211-62.005-3.391-119.567-13.161-203.065-62.496-203.065-107.391 0.088-6.020 1.435-11.935 3.935-17.279 17.487-39.403 92.68-77.757 194.978-89.707zM654.228 807.848c-121.096-12.677-205.908-62.496-205.908-107.632v-73.961c43.717 37.223 116.579 63.545 204.013 71.943 19.673 1.857 40.075 2.907 61.131 2.907 114.976 0 211.298-29.229 265.070-74.851v73.961c0 52.484-113.373 110.943-265.070 110.943-20.475-0.243-40.292-1.372-59.236-3.715v0.404zM310.539 50.385c151.698 0 265.070 58.459 265.070 111.104s-113.373 110.377-265.070 110.377c-151.698 0-265.070-58.459-265.070-110.377s113.664-111.104 265.070-111.104zM402.927 700.78v47.073c-30.587 4.999-61.471 7.428-92.389 7.267-151.406 0-265.070-58.297-265.070-110.539v-75.496c53.627 45.62 150.096 75.253 265.070 75.253 30.892 0.151 61.759-2.008 92.389-6.46v62.9zM402.927 540.503v45.863c-30.58 5.107-61.464 7.644-92.389 7.589-151.333 0-264.998-58.863-264.998-111.104v-75.173c53.627 45.54 150.096 75.173 265.070 75.173 40.46 0.167 80.849-3.78 120.659-11.789-17.412 18.051-27.635 43.032-28.416 69.44h0.073zM310.539 432.144c-151.698 0-265.070-58.54-265.070-110.781v-73.961c53.627 45.54 150.096 74.769 265.070 74.769s211.298-29.229 265.070-74.851v74.043c0 52.241-113.373 110.781-265.070 110.781zM978.681 862.026c0 52.161-113.519 110.62-265.217 110.62s-265.070-58.459-265.070-110.781v-72.185l2.915-0.727c54.136 44.248 149.293 72.669 262.302 72.669 114.976 0 211.298-29.229 265.070-74.851v75.253z"></path>
</svg>
