<svg version="1.1" xmlns="http://www.w3.org/2000/svg" viewBox="0 0 1024 1024">
<path d="M844.801 308.82c-66.661 61.538-191.48 100.78-332.799 100.78s-266.139-39.241-332.799-100.78v100.78c0 80.008 147.186 153.6 332.799 153.6s332.799-73.592 332.799-153.6v-100.78zM896 204.8v614.4c0 117.931-173.737 204.8-384 204.8s-384-86.868-384-204.8v-614.4c0-117.931 173.737-204.8 384-204.8s384 86.868 384 204.8zM844.801 819.2v-100.78c-66.661 61.538-191.48 100.78-332.799 100.78s-266.139-39.241-332.799-100.78v100.78c0 80.008 147.186 153.6 332.799 153.6s332.799-73.592 332.799-153.6zM844.801 614.4v-100.78c-66.661 61.538-191.48 100.78-332.799 100.78s-266.139-39.241-332.799-100.78v100.78c0 80.008 147.186 153.6 332.799 153.6s332.799-73.592 332.799-153.6zM512 358.4c185.615 0 332.799-73.592 332.799-153.6s-147.186-153.6-332.799-153.6c-185.615 0-332.799 73.592-332.799 153.6s147.186 153.6 332.799 153.6z"></path>
</svg>
