<?xml version="1.0" standalone="no"?>
<!DOCTYPE svg PUBLIC "-//W3C//DTD SVG 20010904//EN"
 "http://www.w3.org/TR/2001/REC-SVG-20010904/DTD/svg10.dtd">
<svg version="1.0" xmlns="http://www.w3.org/2000/svg"
 width="700.000000pt" height="700.000000pt" viewBox="0 0 700.000000 700.000000"
 preserveAspectRatio="xMidYMid meet">
<metadata>
Created by potrace 1.11, written by Peter Selinger 2001-2013
</metadata>
<g transform="translate(0.000000,700.000000) scale(0.100000,-0.100000)"
fill="#000000" stroke="none">
<path d="M2880 6963 c1 -56 28 -179 53 -240 80 -196 238 -313 491 -363 32 -7
62 -8 66 -3 27 27 81 133 91 179 18 81 0 135 -70 204 -64 63 -137 104 -266
150 -79 27 -337 100 -357 100 -5 0 -8 -12 -8 -27z"/>
<path d="M4930 6414 c-69 -51 -162 -80 -405 -129 -274 -55 -334 -76 -413 -149
-54 -49 -72 -95 -72 -178 0 -95 19 -173 71 -289 23 -52 52 -121 65 -154 l23
-60 1 68 0 69 73 -7 c234 -21 513 139 651 375 65 111 81 171 81 305 0 86 -4
129 -15 151 l-15 31 -45 -33z"/>
<path d="M3552 6083 c90 -143 163 -307 207 -465 72 -258 83 -594 31 -904 -68
-402 -193 -762 -545 -1569 -196 -451 -327 -773 -399 -983 -242 -706 -267
-1251 -81 -1747 43 -115 74 -180 145 -300 l51 -85 250 0 250 0 -52 98 c-29 53
-78 144 -110 202 -240 441 -312 662 -326 1000 -9 218 17 432 88 718 52 212
120 401 279 772 202 472 286 686 369 936 252 757 301 1320 160 1819 -61 216
-171 427 -276 526 -99 95 -109 91 -41 -18z"/>
<path d="M1940 5044 c0 -3 18 -52 40 -109 191 -486 500 -786 890 -861 120 -23
294 -18 429 12 22 5 23 3 19 -33 -6 -49 7 -162 21 -176 18 -18 41 55 41 130 0
44 -11 107 -30 178 -16 61 -30 111 -30 113 0 1 18 -9 39 -24 53 -35 81 -29
106 21 29 58 26 188 -5 270 -29 75 -114 162 -218 223 -63 37 -71 45 -62 62 14
27 1 79 -26 96 -67 44 -109 48 -554 49 -428 1 -503 6 -600 40 -46 16 -60 18
-60 9z"/>
<path d="M1325 4542 c-246 -126 -325 -200 -325 -305 0 -58 18 -99 67 -157 35
-41 38 -42 81 -36 126 17 295 143 354 264 44 89 50 184 18 260 -12 29 -28 52
-34 52 -6 -1 -79 -35 -161 -78z"/>
<path d="M5861 4293 c-68 -32 -172 -62 -421 -118 -278 -62 -371 -106 -407
-193 -47 -112 -221 -282 -360 -352 -48 -24 -66 -41 -104 -97 -48 -72 -45 -71
-126 -57 -52 8 -115 -19 -245 -106 -178 -119 -286 -159 -454 -167 l-112 -6
-118 -251 c-146 -311 -184 -397 -245 -560 -96 -251 -155 -506 -147 -637 l3
-54 455 0 c415 0 461 -2 523 -19 76 -21 120 -47 151 -89 34 -46 28 -160 -17
-330 -21 -78 -37 -160 -37 -192 0 -108 -71 -416 -140 -603 -50 -138 -41 -168
68 -229 l67 -38 -3 -42 c-2 -26 4 -59 16 -86 19 -44 20 -44 82 -50 35 -4 132
-7 217 -7 l154 0 -45 57 c-25 32 -86 103 -136 157 -107 119 -131 169 -138 298
-6 116 1 148 47 203 39 47 111 218 111 262 0 31 54 200 98 303 52 123 172 320
212 348 69 47 163 52 314 17 157 -37 400 -131 598 -232 79 -40 119 -67 149
-101 55 -63 117 -106 201 -139 84 -33 124 -74 229 -238 69 -108 70 -111 65
-162 -8 -65 4 -78 81 -87 121 -14 139 -36 129 -149 -5 -55 -3 -77 6 -84 39
-32 326 -108 384 -101 l32 3 -68 141 c-53 112 -77 150 -111 180 -74 66 -110
107 -136 159 -39 75 -69 110 -137 159 -77 55 -185 169 -222 233 -120 212 -241
351 -351 404 -99 47 -199 159 -288 322 l-38 69 7 136 c4 87 2 175 -6 242 -21
182 -18 214 29 313 23 48 83 151 134 229 50 78 114 182 141 232 59 109 73 126
108 126 37 0 77 -45 150 -169 64 -109 83 -167 96 -296 6 -65 9 -73 48 -108 48
-46 96 -72 160 -88 39 -10 53 -9 91 6 56 21 108 80 126 143 21 71 15 385 -16
838 -19 274 -25 425 -21 510 5 108 4 124 -12 144 l-18 22 -94 -77 c-127 -103
-140 -109 -184 -91 -36 15 -140 88 -151 106 -11 18 -170 60 -245 65 -66 4 -81
2 -129 -22z"/>
<path d="M1011 3668 c-41 -185 -46 -232 -46 -438 0 -174 4 -221 23 -312 34
-164 88 -316 168 -477 119 -239 223 -393 546 -809 239 -308 342 -457 446 -647
70 -128 77 -150 113 -330 35 -181 71 -263 130 -302 46 -30 108 -44 167 -36
l42 6 0 56 c-1 145 -45 367 -104 521 -103 265 -258 494 -596 880 -337 385
-438 510 -560 695 -134 204 -245 466 -284 674 -26 138 -37 332 -26 475 5 71 8
131 6 133 -2 3 -13 -38 -25 -89z"/>
<path d="M2485 3403 c-75 -49 -200 -96 -415 -153 -203 -54 -326 -103 -372
-147 -29 -27 -72 -128 -63 -143 3 -5 -17 -37 -45 -72 -70 -87 -94 -140 -98
-221 -4 -60 -1 -75 26 -130 17 -35 42 -73 55 -85 l25 -23 6 28 c9 34 33 73 46
73 6 0 10 -63 10 -160 l0 -160 50 0 c28 0 50 4 50 9 0 5 -12 29 -26 55 -14 25
-24 56 -22 68 3 20 12 24 93 35 111 16 179 35 261 74 221 105 367 321 434 642
20 98 44 304 39 328 -3 11 -16 7 -54 -18z"/>
<path d="M350 3150 c-95 -13 -216 -54 -289 -97 l-63 -38 73 -68 c176 -166 358
-251 534 -250 101 0 171 21 242 73 36 27 42 37 48 81 24 173 -129 292 -390
304 -49 2 -119 0 -155 -5z"/>
<path d="M1215 1671 c-90 -25 -135 -42 -376 -152 -209 -94 -370 -153 -451
-164 -35 -5 -48 -12 -48 -24 0 -34 61 -120 129 -183 158 -147 407 -228 695
-228 244 0 445 64 567 178 l37 34 13 -28 c13 -26 71 -74 90 -74 11 0 -38 106
-100 215 -28 50 -51 100 -51 112 0 43 -50 179 -86 231 -51 77 -97 95 -239 99
-84 2 -127 -2 -180 -16z"/>
</g>
</svg>
